<?xml version="1.0" encoding="utf-8"?>
<!-- Generator: Adobe Illustrator 18.1.1, SVG Export Plug-In . SVG Version: 6.00 Build 0)  -->
<svg version="1.1" id="Layer_1" xmlns="http://www.w3.org/2000/svg" xmlns:xlink="http://www.w3.org/1999/xlink" x="0px" y="0px"
	 viewBox="850 527.6 220 22" enable-background="new 850 527.6 220 22" xml:space="preserve">
<g>
	<g>
		<path fill="#CECCCC" d="M1066.4,543.5c0,1.4-1.1,2.5-2.6,2.5h-47.9c-1.4,0-2.6-1.1-2.6-2.5v-9.8c0-1.4,1.2-2.5,2.6-2.5h47.9
			c1.5,0,2.6,1.2,2.6,2.5V543.5z"/>
	</g>
	<g>
		<text transform="matrix(1 0 0 1 931.5959 542.3917)" fill="#BCBCBC" font-family="'Dosis-Regular'" font-size="11">1</text>
	</g>
	<g>
		<text transform="matrix(1 0 0 1 982.4004 542.3917)" fill="#BCBCBC" font-family="'Dosis-Regular'" font-size="11">10</text>
	</g>
	<g>
		<path fill="none" stroke="#919191" stroke-miterlimit="10" d="M1069,545.6c0,1.7-1.3,3-3,3H854c-1.6,0-3-1.3-3-3v-14
			c0-1.6,1.4-3,3-3h212c1.7,0,3,1.4,3,3V545.6z"/>
	</g>
	<g>
		<text transform="matrix(1 0 0 1 875.1219 542.3916)" fill="#BCBCBC" font-family="'Dosis-Regular'" font-size="11">0.1</text>
	</g>
	<g>
		<text transform="matrix(1 0 0 1 1032.499 542.3916)" fill="#535353" font-family="'Dosis-Medium'" font-size="11">100</text>
	</g>
</g>
</svg>
